flun          
128
F
0
57758
hlun          
128
F
0
57808
flun          
128
F
0
57758
flun          
128
F
0
57758
flun          
128
F
0
57758
flun          
128
F
0
57758
flun          
128
F
0
57758
flun          
128
F
0
57758
flun          
128
F
0
57758
flun          
128
F
0
57758
flun          
128
F
0
57758
flun          
128
F
0
57758
flun          
128
F
0
57758
flun          
128
F
0
57758
flun          
128
F
0
57758
flun          
128
F
0
57758
