Kick
128
O
0
0
Snare
128
O
0
0
Closed HH
128
O
0
0
Open HH
128
O
0
0
Crash
128
O
0
0
Ride
128
O
0
0
Drums
128
O
0
0
Drums
128
O
0
0
Drums
128
O
0
0
Drums
128
O
0
0
Drums
128
O
0
0
Drums
128
O
0
0
Drums
128
O
0
0
Drums
128
O
0
0
Drums
128
O
0
0
Drums
128
O
0
0
