String          
128
O
4471
27474
String Loop 
128
F
4471
27474
String High     
192
F
4471
27474
String Higher     
256
F
4471
27474
String          
0
F
4471
27474
String          
0
F
4471
27474
String          
0
F
4471
27474
String          
0
F
4471
27474
String          
0
F
4471
27474
String          
0
F
4471
27474
String          
0
F
4471
27474
String          
0
F
4471
27474
String          
0
F
4471
27474
String          
0
F
4471
27474
String          
0
F
4471
27474
String          
0
F
4471
27474
